…
    ## Warning: One or more parsing issues, call `problems()` on your data frame for details,
    ## e.g.:
    ##   dat <- vroom(...)
    ##   problems(dat)

The code chunk above reports a warning about some parsing errors. So
let’s investigate with `problems()`.

``` r
problems(FF3)
```

    ## # A tibble: 104 × 5
    ##      row   col expected       actual                           file             
    ##    <int> <int> <chr>          <chr>                            <chr>            
    ##  1  1171     1 5 columns      1 columns                        C:/Users/Work/Pr…
    ##  2  1171     1 date like %Y%m Annual Factors: January-December C:/Users/Work/Pr…
    ##  3  1172     2 a double       Mkt-RF                           C:/Users/Work/Pr…
    ##  4  1172     3 a double       SMB                              C:/Users/Work/Pr…
    ##  5  1172     4 a double       HML                              C:/Users/Work/Pr…
    ##  6  1172     5 a double       RF                               C:/Users/Work/Pr…
    ##  7  1173     1 date like %Y%m 1927                             C:/Users/Work/Pr…
    ##  8  1174     1 date like %Y%m 1928                             C:/Users/Work/Pr…
    ##  9  1175     1 date like %Y%m 1929                             C:/Users/Work/Pr…
    ## 10  1176     1 date like %Y%m 1930                             C:/Users/Work/Pr…
    ## # ℹ 94 more rows
…
